@startuml

' style tweaks to make the diagram a little more readable
skinparam {
	Style strictuml
	RoundCorner 8

	Sequence {
		' make activations yellow too
		LifeLineBackgroundColor #FDFDCD

		' make stereotypes less ugly
		Stereotype {
			Font {
				Size 11
				Style plain
			}
		}
	}

	DatabaseBorderColor #A80036

}

title Edit Product

actor User as user
participant "Main" as main << main >>
participant "MainMenu" as menu << frame >>
participant "ProductReportDialog" as report << dialog >>
participant "ProductEditorDialog" as editor << dialog >>
participant "ProductDBdao" as dao << DAO >>
participant "SimpleListModel\n:model" as model 
participant "ValidationHelper" as validator
database "Database" as db

create menu
main -> menu : « create »

user -> menu : clicks 'View Products'
activate menu

create report
menu -> report : « create »

activate report
create dao
report -> dao: « create »

create model
report -> model : « create »

create validator
report -> validator++ : « create »
return JfmtTxtField(productId) type validated



note over report: existing report code\nas shown in\n'View Products'\ndiagram
user <-- report : list of products displayed

deactivate report

user -> report++ : selects a product in the list
report--

user -> report : clicks 'Edit' button
activate report

report -> report : jList.getSelectedValue() : product

create editor
report -> editor++ : « create(product) »

' your code goes here
editor -> validator++
return GUI input fields\ntype & value validated
note over editor : gets and sets product to edit\ndetails from GUI component,\nproduct_id set uneditable
editor -> editor : extracts and sets\nproduct details

user <-- editor : product details displayed, ready for editing
deactivate editor

user -> editor++ : edits product details
editor--

user -> editor++ : clicks 'Save' button
note over editor : product_id is uneditable\nand productId is set

editor -> validator++ : isValid(product)
return valid
opt if valid
note over editor: existing save code as\nshown in 'Add Product'\ndiagram
end
editor --> report
editor--

destroy editor

report -> dao++ : getCategories()
dao -> db++ : select distinct category from product
return ResultSet
dao -> dao : extract categories\nfrom ResultSet
return categories

report -> model++ : updateItems(categories) jComboBox.updateItems(categories)
model--
report -> report : jComboBox.setModel(model)
note left: updated categories\nin jComboBox.

report -> dao++ : getProducts()
dao -> db++ : select * from product order by product_id
return ResultSet
dao -> dao : extract products\nfrom ResultSet
return products

report -> model++ : updateItems(products) jList.updateItems(products)
model--
report -> report : jList.setModel(model)

note left: updated products\nin report
user <-- report : list of updated products displayed

@enduml
